// Jest Snapshot v1, https://goo.gl/fbAQLP

exports[`Button renders correctly 1`] = `
<button
  className="sc-bdnylx cLHgPn"
  color="black"
  disabled={true}
  fontSize="12px"
  fontWeight="400"
  type="button"
>
  some button
</button>
`;
